{
    "KPlugin": {
        "Authors": [
            {
                "Email": "aleixpol@kde.org",
                "Name": "Aleix Pol",
                "Name[ar]": "Aleix Pol",
                "Name[az]": "Aleix Pol",
                "Name[ca@valencia]": "Aleix Pol",
                "Name[ca]": "Aleix Pol",
                "Name[cs]": "Aleix Pol",
                "Name[de]": "Aleix Pol",
                "Name[el]": "Aleix Pol",
                "Name[en_GB]": "Aleix Pol",
                "Name[eo]": "Aleix Pol",
                "Name[es]": "Aleix Pol",
                "Name[et]": "Aleix Pol",
                "Name[eu]": "Aleix Pol",
                "Name[fi]": "Aleix Pol",
                "Name[fr]": "Aleix Pol",
                "Name[gl]": "Aleix Pol",
                "Name[it]": "Aleix Pol",
                "Name[ka]": "ალის პოლი",
                "Name[ko]": "Aleix Pol",
                "Name[nl]": "Aleix Pol",
                "Name[nn]": "Aleix Pol",
                "Name[pl]": "Aleix Pol",
                "Name[pt]": "Aleix Pol",
                "Name[pt_BR]": "Aleix Pol",
                "Name[ru]": "Aleix Pol Gonzalez",
                "Name[sk]": "Aleix Pol",
                "Name[sl]": "Aleix Pol",
                "Name[sv]": "Aleix Pol",
                "Name[tr]": "Aleix Pol",
                "Name[uk]": "Aleix Pol",
                "Name[x-test]": "xxAleix Polxx",
                "Name[zh_CN]": "Aleix Pol"
            }
        ],
        "Category": "Runtimes",
        "Description": "Exposes Android runtimes",
        "Description[az]": "Android işləmə vaxtını təqdim edir",
        "Description[ca@valencia]": "Exposa el temps d'execució d'Android",
        "Description[ca]": "Exposa el temps d'execució de l'Android",
        "Description[de]": "Stellt Android-Laufzeitumgebungen bereit",
        "Description[el]": "Εμφανίζει τις εκτελέσεις του Android",
        "Description[en_GB]": "Exposes Android runtimes",
        "Description[eo]": "Malkovras Android-rultempojn",
        "Description[es]": "Expone bibliotecas en tiempo de ejecución de Android",
        "Description[et]": "Androidi käitusaegade näitamine",
        "Description[eu]": "Android-en exekuzio-denborak azaltzen ditu",
        "Description[fr]": "Expose les exécutifs Android",
        "Description[gl]": "Expón execucións de Android.",
        "Description[it]": "Espone i runtime di Android",
        "Description[ka]": "Android-ის გამშვები ბიბლიოთეკების გაშიშვლება",
        "Description[ko]": "Android 런타임 표시",
        "Description[nl]": "Toont Android runtimes",
        "Description[pl]": "Udostępnia biblioteki uruchomieniowe Androida",
        "Description[pt]": "Expõe as bibliotecas do Android",
        "Description[pt_BR]": "Expõe as bibliotecas do Android",
        "Description[ru]": "Предоставляет доступ к средам выполнения Android",
        "Description[sk]": "Vystavuje Android runtime",
        "Description[sl]": "Izpostavi izvajalne knjižnice za Android",
        "Description[sv]": "Exponerar Android-körtidsprogram",
        "Description[tr]": "Android çalışma zamanlarını açığa çıkarır",
        "Description[uk]": "Надає доступ до середовищ виконання Android",
        "Description[x-test]": "xxExposes Android runtimesxx",
        "Description[zh_CN]": "暴露 Android 运行时",
        "Icon": "kdevelop",
        "Id": "kdevandroid",
        "License": "GPL",
        "Name": "Android Support",
        "Name[ar]": "دعم أندرويد",
        "Name[az]": "Android dəstəyi",
        "Name[ca@valencia]": "Implementació d'Android",
        "Name[ca]": "Implementació de l'Android",
        "Name[cs]": "Podpora Androidu",
        "Name[de]": "Unterstützung für Android",
        "Name[el]": "Υποστήριξη android",
        "Name[en_GB]": "Android Support",
        "Name[eo]": "Android-Subteno",
        "Name[es]": "Implementación de Android",
        "Name[et]": "Androidi toetus",
        "Name[eu]": "Android-en euskarria",
        "Name[fi]": "Android-tuki",
        "Name[fr]": "Prise en charge de Android",
        "Name[gl]": "Compatibilidade con Android.",
        "Name[it]": "Supporto per Android",
        "Name[ka]": "Android-ის მხარდაჭერა",
        "Name[ko]": "Android 지원",
        "Name[nl]": "Ondersteuning voor Android",
        "Name[nn]": "Android-støtte",
        "Name[pl]": "Obsługa Androida",
        "Name[pt]": "Suporte para o Android",
        "Name[pt_BR]": "Suporte ao Android",
        "Name[ru]": "Поддержка Android",
        "Name[sk]": "Podpora Androidu",
        "Name[sl]": "Podpora za Android",
        "Name[sv]": "Android-stöd",
        "Name[tr]": "Android Desteği",
        "Name[uk]": "Підтримка Android",
        "Name[x-test]": "xxAndroid Supportxx",
        "Name[zh_CN]": "Android 支持",
        "Version": "0.1"
    },
    "X-KDevelop-Category": "Global",
    "X-KDevelop-Mode": "NoGUI"
}
