{
    "KPlugin": {
        "Authors": [
            {
                "Email": "arichardson.kde@gmail.com",
                "Name": "Alex Richardson",
                "Name[az]": "Alex Richardson",
                "Name[ca@valencia]": "Alex Richardson",
                "Name[ca]": "Alex Richardson",
                "Name[cs]": "Alex Richardson",
                "Name[de]": "Alex Richardson",
                "Name[el]": "Alex Richardson",
                "Name[en_GB]": "Alex Richardson",
                "Name[eo]": "Alex Richardson",
                "Name[es]": "Alex Richardson",
                "Name[et]": "Alex Richardson",
                "Name[eu]": "Alex Richardson",
                "Name[fr]": "Alex Richardson",
                "Name[gl]": "Alex Richardson",
                "Name[it]": "Alex Richardson",
                "Name[ka]": "ალექს რიჩარდსონი",
                "Name[ko]": "Alex Richardson",
                "Name[nl]": "Alex Richardson",
                "Name[nn]": "Alex Richardson",
                "Name[pl]": "Alex Richardson",
                "Name[pt]": "Alex Richardson",
                "Name[pt_BR]": "Alex Richardson",
                "Name[ru]": "Alex Richardson",
                "Name[sk]": "Alex Richardson",
                "Name[sl]": "Alex Richardson",
                "Name[sv]": "Alex Richardson",
                "Name[tr]": "Alex Richardson",
                "Name[uk]": "Alex Richardson",
                "Name[x-test]": "xxAlex Richardsonxx",
                "Name[zh_CN]": "Alex Richardson"
            }
        ],
        "Category": "Core",
        "Description": "This plugin provides a view to show the outline of the currently open document.",
        "Description[az]": "Bu qoşma, cari açıq sənədin çərçivələrinin görünməsini təmin edir.",
        "Description[ca@valencia]": "Este connector proporciona una visualització que mostra un esquema del document obert actualment.",
        "Description[ca]": "Aquest connector proporciona una visualització que mostra un esquema del document obert actualment.",
        "Description[de]": "Dieses Modul zeigt eine Ansicht der Funktions-Kurzinfos im aktuell geöffneten Dokument.",
        "Description[el]": "Αυτό το πρόσθετο προσφέρει μια προβολή εμφάνισης του περιγράμματος του τρέχοντος ανοιχτού εγγράφου.",
        "Description[en_GB]": "This plugin provides a view to show the outline of the currently open document.",
        "Description[eo]": "Ĉi tiu kromaĵo disponigas vidon por montri la skizon de la nuntempe malfermita dokumento.",
        "Description[es]": "Este complemento proporciona una vista para mostrar el boceto del documento actualmente abierto.",
        "Description[et]": "See plugin pakub parajasti avatud dokumendi struktuurivaadet.",
        "Description[eu]": "Plugin honek unean irekitako dokumentuaren eskema erakusten duen ikuspegi bat ematen du.",
        "Description[fr]": "Ce module fournit une vue pour afficher le plan du document ouvert",
        "Description[gl]": "Este complemento fornece unha vista para amosar o esquema do documento actual.",
        "Description[it]": "Questa estensione fornisce una vista che mostra uno schema di massima del documento attualmente aperto.",
        "Description[ko]": "이 플러그인 현재 열린 문서의 요약 보기를 제공합니다.",
        "Description[nl]": "Deze plugin biedt zicht op de outline van het nu geopende document.",
        "Description[pl]": "Umożliwia przeglądanie zarysu obecnie otwartego dokumentu.",
        "Description[pt]": "Este 'plugin' oferece uma visão geral sobre o documento aberto de momento.",
        "Description[pt_BR]": "Este plugin fornece uma visão geral do documento que estiver aberto.",
        "Description[ru]": "Это расширение позволяет просмотреть структуру текущего открытого документа",
        "Description[sk]": "Tento plugin poskytuje pohľad na zobrazenie obrysu aktuálne otvoreného dokumentu.",
        "Description[sl]": "Ta vstavek ponuja prikaz za oris trenutno odprtega dokumenta.",
        "Description[sv]": "Insticksprogrammet tillhandahåller en vy för att visa en översikt av dokumentet som för närvarande är öppet.",
        "Description[tr]": "Bu eklenti, geçerli açık belgenin ana hattını görüntülemek için bir görünüm sağlar.",
        "Description[uk]": "За допомогою цього додатка можна переглянути схему поточного відкритого документа.",
        "Description[x-test]": "xxThis plugin provides a view to show the outline of the currently open document.xx",
        "Description[zh_CN]": "此插件提供了一个当前显示当前打开文档的概要的视图。",
        "Icon": "code-class",
        "Id": "KDevOutlineView",
        "License": "LGPL",
        "Name": "Outline",
        "Name[ar]": "محيط",
        "Name[az]": "Çərçivə",
        "Name[ca@valencia]": "Esquema",
        "Name[ca]": "Esquema",
        "Name[cs]": "Obrys",
        "Name[de]": "Funktions-Kurzinfo",
        "Name[el]": "Outline",
        "Name[en_GB]": "Outline",
        "Name[eo]": "Skizo",
        "Name[es]": "Boceto",
        "Name[et]": "Struktuur",
        "Name[eu]": "Ingerada",
        "Name[fr]": "Plan",
        "Name[gl]": "Esquema",
        "Name[it]": "Schema di massima",
        "Name[ka]": "კონტური",
        "Name[ko]": "요약",
        "Name[nl]": "Outline",
        "Name[pl]": "Zarys",
        "Name[pt]": "Visão Geral",
        "Name[pt_BR]": "Contorno",
        "Name[ru]": "Структура",
        "Name[sk]": "Obrys",
        "Name[sl]": "Oris",
        "Name[sv]": "Översikt",
        "Name[tr]": "Çerçeve",
        "Name[uk]": "Схема",
        "Name[x-test]": "xxOutlinexx",
        "Name[zh_CN]": "轮廓"
    },
    "X-KDevelop-Category": "Global",
    "X-KDevelop-Mode": "GUI"
}
